cmake_minimum_required(VERSION 3.16)
project(proto_project LANGUAGES CXX)

find_package(Qt6 REQUIRED COMPONENTS Protobuf Grpc)
qt_standard_project_setup(REQUIRES 6.8)

qt_add_protobuf(proto_project
    GENERATE_PACKAGE_SUBFOLDERS
    PROTO_FILES
        test.proto
)

target_link_libraries(proto_project
    PRIVATE
        Qt::Protobuf
        Qt::Grpc
)
