<svg width="24" height="24" viewBox="0 0 24 24" fill="none" xmlns="http://www.w3.org/2000/svg">
<path fill-rule="evenodd" clip-rule="evenodd" d="M21.7071 7.29289C21.3166 6.90237 20.6834 6.90237 20.2929 7.29289L12 15.5858L3.70711 7.29289C3.31658 6.90237 2.68342 6.90237 2.29289 7.29289C1.90237 7.68342 1.90237 8.31658 2.29289 8.70711L11.2929 17.7071C11.6834 18.0976 12.3166 18.0976 12.7071 17.7071L21.7071 8.70711C22.0976 8.31658 22.0976 7.68342 21.7071 7.29289Z" fill="#0D0D0D"/>
<path d="M3 7C2.74408 7 2.48816 7.09763 2.29289 7.29289C1.90237 7.68342 1.90237 8.31658 2.29289 8.70711L11.2929 17.7071C11.6834 18.0976 12.3166 18.0976 12.7071 17.7071L21.7071 8.70711C22.0976 8.31658 22.0976 7.68342 21.7071 7.29289C21.5118 7.09763 21.2559 7 21 7C20.9998 7 21.0002 7 21 7L3 7Z" fill="#0D0D0D"/>
</svg>
